{
  "success": true,
  "articles": [
    {
      "id": "2bfbe5aa-5098-4370-9765-6958416c5491",
      "title": "Favelas de Boca do Acre, no Amazonas, foram as mais afetadas pela poluição da fumaça na Amazônia em 2024",
      "url": "http://infoamazonia.org/2025/03/13/favelas-de-boca-do-acre-no-amazonas-foram-as-mais-afetadas-pela-poluicao-da-fumaca-na-amazonia-em-2024/",
      "published_date": "2025-03-13",
      "author": "Fred Santana",
      "description": "No segundo semestre de 2024, a população das favelas e comunidades urbanas do município no interior do Amazonas enfrentou níveis de poluição de até 113 µg/m³, valor 653% acima do limite estabelecido pela OMS. No dia a dia, moradores relatam que tiveram que usar máscaras e crianças ficaram duas semanas sem aulas.",
      "summary_content": "O artigo da InfoAmazonia destaca os impactos severos da poluição da fumaça das queimadas na região amazônica, especificamente nas favelas de Boca do Acre, Amazonas, durante a temporada de queimadas de 2024. As comunidades Conjunto Antônio Jorge, Conjunto João Pedro, Rabo da Cobra e Shan foram as mais afetadas, com níveis de material particulado fino (PM2.5) atingindo 113 µg/m³, muito acima do limite seguro de 15 µg/m³ recomendado pela OMS. Esta poluição teve consequências graves para a saúde dos moradores, especialmente crianças e idosos, resultando em doenças respiratórias, irritações oculares e outras complicações.\n\nA reportagem detalha a infraestrutura precária das áreas afetadas, com falta de asfalto e saneamento, aumentando a vulnerabilidade dos moradores. A resposta do governo do Amazonas foi criticada por sua lentidão e falta de medidas preventivas eficazes. Apenas em 2024, medidas como a instalação de sensores de qualidade do ar e a criação de um comitê permanente para enfrentar eventos climáticos começaram a ser implementadas. O artigo faz parte de uma série que investiga a poluição do ar na Amazônia, destacando a necessidade urgente de ações governamentais e comunitárias para mitigar os impactos das queimadas na saúde pública e no meio ambiente.",
      "key_words": null,
      "similarity": null
    }
  ],
  "total": 16,
  "pages": 2,
  "current_page": 1
}